
 ███████████                        ███████████                      ███
░█░░░███░░░█                       ░█░░░███░░░█                     ░░░
░   ░███  ░   ██████  █████ ████   ░   ░███  ░  ████████   ██████   ████  ████████    █████
    ░███     ███░░███░░███ ░███        ░███    ░░███░░███ ░░░░░███ ░░███ ░░███░░███  ███░░
    ░███    ░███ ░███ ░███ ░███        ░███     ░███ ░░░   ███████  ░███  ░███ ░███ ░░█████
    ░███    ░███ ░███ ░███ ░███        ░███     ░███      ███░░███  ░███  ░███ ░███  ░░░░███
    █████   ░░██████  ░░███████        █████    █████    ░░████████ █████ ████ █████ ██████
   ░░░░░     ░░░░░░    ░░░░░███       ░░░░░    ░░░░░      ░░░░░░░░ ░░░░░ ░░░░ ░░░░░ ░░░░░░
                       ███ ░███
                      ░░██████
                       ░░░░░░

Version: ${application.formatted-version}

~ Powered by ~
Spring Boot:${spring-boot.formatted-version}

